Moloco
…
Problem 2

I first limited the data frame to only entries that fall between the desired time frame. I then grouped by user_id and site_id so I could count the number of times each user visited each site. I arranged this data in descending order by the number of visits to get the users who visited a certain site more than 10 times in the first four rows.

dat %>% filter(as.Date(ts) >= as.Date('2019-02-03') & as.Date(ts) <= as.Date('2019-02-04')) %>%
  group_by(user_id, site_id) %>%
  summarise(num_visits = length(ts)) %>%
  arrange(desc(num_visits))

## # A tibble: 746 x 3
## # Groups:   user_id [708]
##    user_id site_id num_visits
##    <fct>   <fct>        <int>
##  1 LC3A59  N0OTG           26
##  2 LC06C3  N0OTG           25
##  3 LC3C9D  N0OTG           17
##  4 LC3C7E  3POLC           15
##  5 LC38EB  N0OTG            9
##  6 LCC3A5  5NPAU            8
##  7 LC3FFF  5NPAU            7
##  8 LC32F5  N0OTG            6
##  9 LC3491  5NPAU            6
## 10 LC36FC  N0OTG            6
## #  with 736 more rows
…
